%YAML 1.1
%TAG !u! tag:unity3d.com,2011:
--- !u!1045 &1
EditorBuildSettings:
  m_ObjectHideFlags: 0
  serializedVersion: 2
  m_Scenes:
  - enabled: 1
    path: Assets/Scene/Menu.unity
    guid: f2fe334d30ee55c418115e9f28ee4d4d
  - enabled: 1
    path: Assets/Scene/Scene 1.unity
    guid: 581d5eeff7a49804285748e7f9762507
